{
  "local": {
    "upload_dir": "https://star-wars.s3.amazonaws.com/develop/",
    "recaptcha_v3_api_site_verify": "https://www.google.com/recaptcha/api/siteverify",
    "recaptcha_v3_site_key": "6LdWMQ8aAAAAAOs44FNSEpxd8Ekf6UOYamc_5apc",
    "recaptcha_v3_secrect_key": "6LdWMQ8aAAAAAErBbNj_r_8Wu7CD84rJbmuYmzOY",
    "database": {
      "host": "localhost",
      "port": 3306,
      "user": "root",
      "password": "",
      "database": "starwarsportal",
      "charset" : "utf8mb4"
    }
  },
  "staging": {
    "upload_dir": "https://star-wars.s3.amazonaws.com/staging/"
  },
  "production": {
    "upload_dir": "https://star-wars.s3.amazonaws.com/production/"
  }
}
